﻿{
    "default": {
        "author": "O4U",
        "firstScene": "hall"
    },
    
    "scenes": {

        "hall": {
            "title": "Pai Vista",
            "autoLoad":true,
            "panorama": "pano.jpg",
            "hotSpots": [
                {
                  
                }
            ]
        }
    }
}
