﻿{
    "default": {
        "author": "O4U",
        "firstScene": "hall"
    },
    
    "scenes": {
		
        "hall": {
			"type": "cubemap",
            "title": "Pai Viceroy Sammilan",
            "autoLoad":true,
            "cubeMap": [
			"pano_0.jpg",
			"pano_1.jpg",
			"pano_2.jpg",
			"pano_3.jpg",
			"pano_4.jpg",
			"pano_5.jpg"
			],
            "hotSpots": [
                {
                  
                }
            ]
        }
    }
}
